hw2.Rmd
…
mpg1999 <- mpg[mpg$year == 1999,]
mpg1999

## # A tibble: 117 x 11
##    manufacturer model     displ  year   cyl trans  drv     cty   hwy fl    class
##    <chr>        <chr>     <dbl> <int> <int> <chr>  <chr> <int> <int> <chr> <chr>
##  1 audi         a4          1.8  1999     4 auto( f        18    29 p     comp
##  2 audi         a4          1.8  1999     4 manua f        21    29 p     comp
##  3 audi         a4          2.8  1999     6 auto( f        16    26 p     comp
##  4 audi         a4          2.8  1999     6 manua f        18    26 p     comp
##  5 audi         a4 quatt   1.8  1999     4 manua 4        18    26 p     comp
##  6 audi         a4 quatt   1.8  1999     4 auto( 4        16    25 p     comp
##  7 audi         a4 quatt   2.8  1999     6 auto( 4        15    25 p     comp
##  8 audi         a4 quatt   2.8  1999     6 manua 4        17    25 p     comp
##  9 audi         a6 quatt   2.8  1999     6 auto( 4        15    24 p     mids
## 10 chevrolet    c1500 su   5.7  1999     8 auto( r        13    17 r     suv  
## #  with 107 more rows
sortHwy <- mpg[order(-mpg$hwy), ]
top3 <- sortHwy[1:3, ]
print(top3)

## # A tibble: 3 x 11
##   manufacturer model   displ  year   cyl trans   drv     cty   hwy fl    class  
##   <chr>        <chr>   <dbl> <int> <int> <chr>   <chr> <int> <int> <chr> <chr>  
## 1 volkswagen   jetta     1.9  1999     4 manual f        33    44 d     compact
## 2 volkswagen   new be   1.9  1999     4 manual f        35    44 d     subcom
## 3 volkswagen   new be   1.9  1999     4 auto(l f        29    41 d     subcom

mpg2008 <- mpg[mpg$year == 2008,]
mpg2008

## # A tibble: 117 x 11
##    manufacturer model     displ  year   cyl trans  drv     cty   hwy fl    class
##    <chr>        <chr>     <dbl> <int> <int> <chr>  <chr> <int> <int> <chr> <chr>
##  1 audi         a4          2    2008     4 manua f        20    31 p     comp
##  2 audi         a4          2    2008     4 auto( f        21    30 p     comp
##  3 audi         a4          3.1  2008     6 auto( f        18    27 p     comp
##  4 audi         a4 quatt   2    2008     4 manua 4        20    28 p     comp
##  5 audi         a4 quatt   2    2008     4 auto( 4        19    27 p     comp
##  6 audi         a4 quatt   3.1  2008     6 auto( 4        17    25 p     comp
##  7 audi         a4 quatt   3.1  2008     6 manua 4        15    25 p     comp
##  8 audi         a6 quatt   3.1  2008     6 auto( 4        17    25 p     mids
##  9 audi         a6 quatt   4.2  2008     8 auto( 4        16    23 p     mids
## 10 chevrolet    c1500 su   5.3  2008     8 auto( r        14    20 r     suv  
## #  with 107 more rows
…
